n: 67 attempt: 1 best score: 481 iteration: 130 time: 1.8341410160064697 
n: 67 attempt: 2 best score: 457 iteration: 25 time: 1.728196382522583 
n: 67 attempt: 3 best score: 517 iteration: 409 time: 1.9877738952636719 
n: 67 attempt: 4 best score: 461 iteration: 340 time: 1.6276671886444092 
n: 67 attempt: 5 best score: 441 iteration: 415 time: 1.8659963607788086 
n: 67 attempt: 6 best score: 461 iteration: 217 time: 2.055633068084717 
n: 67 attempt: 7 best score: 449 iteration: 460 time: 1.6162221431732178 
n: 67 attempt: 8 best score: 465 iteration: 93 time: 1.555356502532959 
n: 67 attempt: 9 best score: 473 iteration: 378 time: 1.7745625972747803 
n: 67 attempt: 10 best score: 477 iteration: 155 time: 1.6147806644439697 
n: 67 attempt: 11 best score: 501 iteration: 383 time: 1.8314990997314453 
n: 67 attempt: 12 best score: 481 iteration: 42 time: 1.8367030620574951 
n: 67 attempt: 13 best score: 481 iteration: 340 time: 1.5827991962432861 
n: 67 attempt: 14 best score: 421 iteration: 275 time: 1.6345844268798828 
n: 67 attempt: 15 best score: 465 iteration: 377 time: 1.613858938217163 
n: 67 attempt: 16 best score: 465 iteration: 193 time: 1.8854420185089111 
n: 67 attempt: 17 best score: 481 iteration: 38 time: 2.030801296234131 
n: 67 attempt: 18 best score: 441 iteration: 303 time: 1.853778600692749 
n: 67 attempt: 19 best score: 445 iteration: 30 time: 1.755385160446167 
n: 67 attempt: 20 best score: 465 iteration: 433 time: 1.7245469093322754 
n: 67 attempt: 21 best score: 453 iteration: 105 time: 1.6568939685821533 
n: 67 attempt: 22 best score: 485 iteration: 98 time: 1.869398593902588 
n: 67 attempt: 23 best score: 461 iteration: 353 time: 1.7343640327453613 
n: 67 attempt: 24 best score: 441 iteration: 171 time: 1.60964035987854 
n: 67 attempt: 25 best score: 485 iteration: 247 time: 1.5204675197601318 
n: 67 attempt: 26 best score: 469 iteration: 31 time: 1.524763584136963 
n: 67 attempt: 27 best score: 493 iteration: 147 time: 1.7396304607391357 
n: 67 attempt: 28 best score: 445 iteration: 71 time: 1.837451696395874 
n: 67 attempt: 29 best score: 421 iteration: 342 time: 1.8020448684692383 
n: 67 attempt: 30 best score: 473 iteration: 314 time: 1.5350697040557861 
n: 67 attempt: 31 best score: 473 iteration: 405 time: 1.6505844593048096 
n: 67 attempt: 32 best score: 469 iteration: 21 time: 1.718733787536621 
n: 67 attempt: 33 best score: 469 iteration: 243 time: 1.5909066200256348 
n: 67 attempt: 34 best score: 453 iteration: 284 time: 1.5827431678771973 
n: 67 attempt: 35 best score: 485 iteration: 325 time: 1.5912120342254639 
n: 67 attempt: 36 best score: 489 iteration: 397 time: 1.6513748168945312 
n: 67 attempt: 37 best score: 465 iteration: 389 time: 1.8146896362304688 
n: 67 attempt: 38 best score: 453 iteration: 188 time: 1.6646525859832764 
n: 67 attempt: 39 best score: 501 iteration: 164 time: 1.8408772945404053 
n: 67 attempt: 40 best score: 465 iteration: 216 time: 1.6039588451385498 
n: 67 attempt: 41 best score: 501 iteration: 35 time: 1.674990177154541 
n: 67 attempt: 42 best score: 465 iteration: 430 time: 1.680485725402832 
n: 67 attempt: 43 best score: 485 iteration: 90 time: 1.566868543624878 
n: 67 attempt: 44 best score: 457 iteration: 247 time: 1.4995388984680176 
n: 67 attempt: 45 best score: 481 iteration: 46 time: 1.5002777576446533 
n: 67 attempt: 46 best score: 457 iteration: 209 time: 1.5462462902069092 
n: 67 attempt: 47 best score: 485 iteration: 196 time: 1.5948383808135986 
n: 67 attempt: 48 best score: 465 iteration: 47 time: 1.572847604751587 
n: 67 attempt: 49 best score: 465 iteration: 7 time: 1.5682260990142822 
n: 67 attempt: 50 best score: 441 iteration: 136 time: 1.5416884422302246 
n: 67 attempt: 51 best score: 493 iteration: 116 time: 1.54323148727417 
n: 67 attempt: 52 best score: 497 iteration: 445 time: 1.5770149230957031 
n: 67 attempt: 53 best score: 433 iteration: 310 time: 1.5540003776550293 
n: 67 attempt: 54 best score: 489 iteration: 263 time: 1.6619868278503418 
n: 67 attempt: 55 best score: 465 iteration: 372 time: 1.6574079990386963 
n: 67 attempt: 56 best score: 489 iteration: 116 time: 1.5461194515228271 
n: 67 attempt: 57 best score: 437 iteration: 466 time: 1.533494234085083 
n: 67 attempt: 58 best score: 457 iteration: 269 time: 1.6091625690460205 
n: 67 attempt: 59 best score: 477 iteration: 33 time: 1.532621145248413 
n: 67 attempt: 60 best score: 445 iteration: 9 time: 1.5504059791564941 
n: 67 attempt: 61 best score: 413 iteration: 401 time: 1.5107629299163818 
n: 67 attempt: 62 best score: 409 iteration: 442 time: 1.4918248653411865 
n: 67 attempt: 63 best score: 501 iteration: 174 time: 1.5294382572174072 
n: 67 attempt: 64 best score: 485 iteration: 50 time: 1.527137279510498 
n: 67 attempt: 65 best score: 481 iteration: 17 time: 1.5632951259613037 
n: 67 attempt: 66 best score: 417 iteration: 165 time: 1.4961411952972412 
n: 67 attempt: 67 best score: 401 iteration: 210 time: 1.4838221073150635 
n: 67 attempt: 68 best score: 445 iteration: 144 time: 1.4741871356964111 
n: 67 attempt: 69 best score: 485 iteration: 320 time: 1.5066654682159424 
n: 67 attempt: 70 best score: 429 iteration: 221 time: 1.5228936672210693 
n: 67 attempt: 71 best score: 453 iteration: 282 time: 1.5072953701019287 
n: 67 attempt: 72 best score: 449 iteration: 181 time: 1.5089149475097656 
n: 67 attempt: 73 best score: 389 iteration: 260 time: 1.4993088245391846 
n: 67 attempt: 74 best score: 469 iteration: 189 time: 1.5143256187438965 
n: 67 attempt: 75 best score: 449 iteration: 357 time: 1.483656406402588 
n: 67 attempt: 76 best score: 437 iteration: 14 time: 1.5154213905334473 
n: 67 attempt: 77 best score: 485 iteration: 436 time: 1.531141757965088 
n: 67 attempt: 78 best score: 465 iteration: 417 time: 1.5482285022735596 
n: 67 attempt: 79 best score: 469 iteration: 87 time: 1.483668327331543 
n: 67 attempt: 80 best score: 465 iteration: 191 time: 1.8602499961853027 
n: 67 attempt: 81 best score: 465 iteration: 216 time: 1.5335023403167725 
n: 67 attempt: 82 best score: 485 iteration: 325 time: 1.494258165359497 
n: 67 attempt: 83 best score: 433 iteration: 28 time: 1.4712731838226318 
n: 67 attempt: 84 best score: 437 iteration: 322 time: 1.4975991249084473 
n: 67 attempt: 85 best score: 445 iteration: 59 time: 1.622488021850586 
n: 67 attempt: 86 best score: 481 iteration: 60 time: 1.4429457187652588 
n: 67 attempt: 87 best score: 465 iteration: 101 time: 1.5923192501068115 
n: 67 attempt: 88 best score: 465 iteration: 142 time: 1.499742031097412 
n: 67 attempt: 89 best score: 433 iteration: 25 time: 1.4777722358703613 
n: 67 attempt: 90 best score: 477 iteration: 146 time: 1.5084376335144043 
n: 67 attempt: 91 best score: 425 iteration: 274 time: 1.5714328289031982 
n: 67 attempt: 92 best score: 473 iteration: 223 time: 1.676229476928711 
n: 67 attempt: 93 best score: 485 iteration: 71 time: 1.46620512008667 
n: 67 attempt: 94 best score: 477 iteration: 34 time: 1.6648938655853271 
n: 67 attempt: 95 best score: 441 iteration: 365 time: 1.4898300170898438 
n: 67 attempt: 96 best score: 481 iteration: 232 time: 1.5046861171722412 
n: 67 attempt: 97 best score: 433 iteration: 242 time: 1.6095244884490967 
n: 67 attempt: 98 best score: 489 iteration: 323 time: 1.4695346355438232 
n: 67 attempt: 99 best score: 469 iteration: 408 time: 1.5246777534484863 
n: 67 attempt: 100 best score: 465 iteration: 184 time: 1.552558422088623 
n: 67 attempt: 101 best score: 453 iteration: 244 time: 1.448096513748169 
n: 67 attempt: 102 best score: 345 iteration: 102 time: 1.53562593460083 
n: 67 attempt: 103 best score: 457 iteration: 241 time: 1.4818148612976074 
n: 67 attempt: 104 best score: 481 iteration: 182 time: 1.575443983078003 
n: 67 attempt: 105 best score: 473 iteration: 140 time: 1.473602056503296 
n: 67 attempt: 106 best score: 469 iteration: 435 time: 1.470388412475586 
n: 67 attempt: 107 best score: 493 iteration: 116 time: 1.5253949165344238 
n: 67 attempt: 108 best score: 433 iteration: 297 time: 1.4733266830444336 
n: 67 attempt: 109 best score: 489 iteration: 18 time: 1.7787230014801025 
n: 67 attempt: 110 best score: 481 iteration: 117 time: 1.468294620513916 
n: 67 attempt: 111 best score: 485 iteration: 288 time: 1.4786944389343262 
n: 67 attempt: 112 best score: 489 iteration: 149 time: 1.4908595085144043 
n: 67 attempt: 113 best score: 445 iteration: 183 time: 1.4843690395355225 
n: 67 attempt: 114 best score: 497 iteration: 17 time: 1.4518611431121826 
n: 67 attempt: 115 best score: 453 iteration: 397 time: 1.4687387943267822 
n: 67 attempt: 116 best score: 485 iteration: 325 time: 1.5289781093597412 
n: 67 attempt: 117 best score: 453 iteration: 314 time: 1.6646826267242432 
n: 67 attempt: 118 best score: 481 iteration: 27 time: 1.5077757835388184 
n: 67 attempt: 119 best score: 481 iteration: 154 time: 1.5468814373016357 
n: 67 attempt: 120 best score: 449 iteration: 93 time: 1.5238173007965088 
n: 67 attempt: 121 best score: 429 iteration: 19 time: 1.5280280113220215 
n: 67 attempt: 122 best score: 421 iteration: 93 time: 1.6371264457702637 
n: 67 attempt: 123 best score: 501 iteration: 128 time: 1.6302030086517334 
n: 67 attempt: 124 best score: 505 iteration: 271 time: 1.6974749565124512 
n: 67 attempt: 125 best score: 473 iteration: 313 time: 1.4898386001586914 
n: 67 attempt: 126 best score: 389 iteration: 248 time: 1.6104793548583984 
n: 67 attempt: 127 best score: 449 iteration: 175 time: 1.4985105991363525 
n: 67 attempt: 128 best score: 489 iteration: 51 time: 1.6658449172973633 
n: 67 attempt: 129 best score: 481 iteration: 324 time: 1.4731004238128662 
n: 67 attempt: 130 best score: 445 iteration: 395 time: 1.5445659160614014 
n: 67 attempt: 131 best score: 493 iteration: 341 time: 1.4887678623199463 
n: 67 attempt: 132 best score: 453 iteration: 367 time: 1.487652063369751 
n: 67 attempt: 133 best score: 381 iteration: 311 time: 1.532580852508545 
n: 67 attempt: 134 best score: 437 iteration: 69 time: 1.599372148513794 
n: 67 attempt: 135 best score: 489 iteration: 86 time: 1.6293935775756836 
n: 67 attempt: 136 best score: 485 iteration: 62 time: 1.5466318130493164 
n: 67 attempt: 137 best score: 445 iteration: 313 time: 1.610182285308838 
n: 67 attempt: 138 best score: 489 iteration: 303 time: 1.5719490051269531 
n: 67 attempt: 139 best score: 449 iteration: 255 time: 1.7221288681030273 
n: 67 attempt: 140 best score: 465 iteration: 185 time: 1.5312318801879883 
n: 67 attempt: 141 best score: 465 iteration: 85 time: 1.5293755531311035 
n: 67 attempt: 142 best score: 493 iteration: 407 time: 1.528167486190796 
n: 67 attempt: 143 best score: 501 iteration: 463 time: 1.5828218460083008 
n: 67 attempt: 144 best score: 445 iteration: 82 time: 1.5640146732330322 
n: 67 attempt: 145 best score: 469 iteration: 174 time: 1.5138537883758545 
n: 67 attempt: 146 best score: 481 iteration: 214 time: 1.6432642936706543 
n: 67 attempt: 147 best score: 369 iteration: 387 time: 1.5911593437194824 
n: 67 attempt: 148 best score: 477 iteration: 190 time: 1.5829226970672607 
n: 67 attempt: 149 best score: 437 iteration: 182 time: 1.5545542240142822 
n: 67 attempt: 150 best score: 433 iteration: 170 time: 1.6763947010040283 
n: 67 attempt: 151 best score: 449 iteration: 330 time: 1.5446412563323975 
n: 67 attempt: 152 best score: 445 iteration: 406 time: 1.586456298828125 
n: 67 attempt: 153 best score: 481 iteration: 176 time: 1.53660249710083 
n: 67 attempt: 154 best score: 481 iteration: 75 time: 1.4910662174224854 
n: 67 attempt: 155 best score: 481 iteration: 442 time: 1.7184605598449707 
n: 67 attempt: 156 best score: 469 iteration: 33 time: 1.5008106231689453 
n: 67 attempt: 157 best score: 481 iteration: 298 time: 1.6343748569488525 
n: 67 attempt: 158 best score: 469 iteration: 91 time: 1.5668742656707764 
n: 67 attempt: 159 best score: 493 iteration: 354 time: 1.5468780994415283 
n: 67 attempt: 160 best score: 465 iteration: 87 time: 1.478562831878662 
n: 67 attempt: 161 best score: 465 iteration: 394 time: 1.5156104564666748 
n: 67 attempt: 162 best score: 517 iteration: 446 time: 1.5497021675109863 
n: 67 attempt: 163 best score: 465 iteration: 76 time: 1.493182897567749 
n: 67 attempt: 164 best score: 453 iteration: 132 time: 1.4904370307922363 
n: 67 attempt: 165 best score: 481 iteration: 130 time: 1.6307477951049805 
n: 67 attempt: 166 best score: 453 iteration: 203 time: 1.5407819747924805 
n: 67 attempt: 167 best score: 485 iteration: 263 time: 1.4888098239898682 
n: 67 attempt: 168 best score: 453 iteration: 228 time: 1.5574867725372314 
n: 67 attempt: 169 best score: 481 iteration: 113 time: 1.6918613910675049 
n: 67 attempt: 170 best score: 485 iteration: 332 time: 1.4974119663238525 
n: 67 attempt: 171 best score: 473 iteration: 201 time: 1.5724732875823975 
n: 67 attempt: 172 best score: 441 iteration: 156 time: 1.5212056636810303 
n: 67 attempt: 173 best score: 513 iteration: 8 time: 1.4866702556610107 
n: 67 attempt: 174 best score: 513 iteration: 434 time: 1.5890803337097168 
n: 67 attempt: 175 best score: 473 iteration: 274 time: 1.5684928894042969 
n: 67 attempt: 176 best score: 481 iteration: 93 time: 1.572281837463379 
n: 67 attempt: 177 best score: 453 iteration: 181 time: 1.5200319290161133 
n: 67 attempt: 178 best score: 449 iteration: 39 time: 1.512218952178955 
n: 67 attempt: 179 best score: 413 iteration: 336 time: 1.504424810409546 
n: 67 attempt: 180 best score: 465 iteration: 15 time: 1.529134750366211 
n: 67 attempt: 181 best score: 461 iteration: 10 time: 1.613593339920044 
n: 67 attempt: 182 best score: 465 iteration: 301 time: 1.6017277240753174 
n: 67 attempt: 183 best score: 449 iteration: 149 time: 1.5366401672363281 
n: 67 attempt: 184 best score: 469 iteration: 127 time: 1.4891774654388428 
n: 67 attempt: 185 best score: 477 iteration: 413 time: 1.564913272857666 
n: 67 attempt: 186 best score: 449 iteration: 331 time: 1.5367200374603271 
n: 67 attempt: 187 best score: 473 iteration: 50 time: 1.5368201732635498 
n: 67 attempt: 188 best score: 481 iteration: 163 time: 1.5407006740570068 
n: 67 attempt: 189 best score: 433 iteration: 126 time: 1.4575328826904297 
n: 67 attempt: 190 best score: 481 iteration: 201 time: 1.5090882778167725 
n: 67 attempt: 191 best score: 485 iteration: 26 time: 1.5239684581756592 
n: 67 attempt: 192 best score: 469 iteration: 257 time: 1.5409290790557861 
n: 67 attempt: 193 best score: 453 iteration: 105 time: 1.5799202919006348 
n: 67 attempt: 194 best score: 465 iteration: 150 time: 1.6441972255706787 
n: 67 attempt: 195 best score: 473 iteration: 162 time: 1.5260119438171387 
n: 67 attempt: 196 best score: 477 iteration: 76 time: 1.501528024673462 
n: 67 attempt: 197 best score: 481 iteration: 419 time: 1.656416416168213 
n: 67 attempt: 198 best score: 485 iteration: 219 time: 1.5476298332214355 
n: 67 attempt: 199 best score: 473 iteration: 291 time: 1.5758640766143799 
n: 67 attempt: 200 best score: 509 iteration: 448 time: 1.5051844120025635 
n: 67 attempt: 201 best score: 417 iteration: 426 time: 1.5701472759246826 
n: 67 attempt: 202 best score: 493 iteration: 428 time: 1.614933967590332 
n: 67 attempt: 203 best score: 477 iteration: 347 time: 1.5138449668884277 
n: 67 attempt: 204 best score: 465 iteration: 50 time: 1.50126314163208 
n: 67 attempt: 205 best score: 465 iteration: 161 time: 1.6999430656433105 
n: 67 attempt: 206 best score: 437 iteration: 270 time: 1.6450436115264893 
n: 67 attempt: 207 best score: 425 iteration: 22 time: 1.5883724689483643 
n: 67 attempt: 208 best score: 449 iteration: 237 time: 1.6924269199371338 
n: 67 attempt: 209 best score: 481 iteration: 446 time: 1.5912156105041504 
n: 67 attempt: 210 best score: 437 iteration: 192 time: 1.5080044269561768 
n: 67 attempt: 211 best score: 497 iteration: 298 time: 1.5212750434875488 
n: 67 attempt: 212 best score: 457 iteration: 104 time: 1.544565200805664 
n: 67 attempt: 213 best score: 477 iteration: 367 time: 1.6455812454223633 
n: 67 attempt: 214 best score: 481 iteration: 93 time: 1.8077847957611084 
n: 67 attempt: 215 best score: 449 iteration: 306 time: 1.629817247390747 
n: 67 attempt: 216 best score: 461 iteration: 20 time: 1.4917898178100586 
n: 67 attempt: 217 best score: 509 iteration: 120 time: 1.5512940883636475 
n: 67 attempt: 218 best score: 473 iteration: 66 time: 1.4505071640014648 
n: 67 attempt: 219 best score: 441 iteration: 417 time: 1.4697697162628174 
n: 67 attempt: 220 best score: 453 iteration: 122 time: 1.5461204051971436 
n: 67 attempt: 221 best score: 457 iteration: 270 time: 1.4433917999267578 
n: 67 attempt: 222 best score: 481 iteration: 366 time: 1.4773976802825928 
n: 67 attempt: 223 best score: 477 iteration: 77 time: 1.5513968467712402 
n: 67 attempt: 224 best score: 461 iteration: 416 time: 1.482649326324463 
n: 67 attempt: 225 best score: 465 iteration: 172 time: 1.5167899131774902 
n: 67 attempt: 226 best score: 461 iteration: 411 time: 1.5580666065216064 
n: 67 attempt: 227 best score: 465 iteration: 407 time: 1.5044147968292236 
n: 67 attempt: 228 best score: 465 iteration: 296 time: 1.575575828552246 
n: 67 attempt: 229 best score: 461 iteration: 168 time: 1.4450879096984863 
n: 67 attempt: 230 best score: 497 iteration: 223 time: 1.5235939025878906 
n: 67 attempt: 231 best score: 501 iteration: 169 time: 1.4575350284576416 
n: 67 attempt: 232 best score: 513 iteration: 13 time: 1.4502389430999756 
n: 67 attempt: 233 best score: 501 iteration: 83 time: 1.517301082611084 
n: 67 attempt: 234 best score: 437 iteration: 431 time: 1.6068246364593506 
n: 67 attempt: 235 best score: 453 iteration: 406 time: 1.5200557708740234 
n: 67 attempt: 236 best score: 437 iteration: 214 time: 1.462594985961914 
n: 67 attempt: 237 best score: 469 iteration: 324 time: 1.692650318145752 
n: 67 attempt: 238 best score: 501 iteration: 114 time: 1.5129995346069336 
n: 67 attempt: 239 best score: 481 iteration: 161 time: 1.4702839851379395 
n: 67 attempt: 240 best score: 449 iteration: 234 time: 1.638293743133545 
n: 67 attempt: 241 best score: 489 iteration: 366 time: 1.5174531936645508 
n: 67 attempt: 242 best score: 465 iteration: 324 time: 1.7084558010101318 
n: 67 attempt: 243 best score: 465 iteration: 396 time: 1.5436835289001465 
n: 67 attempt: 244 best score: 465 iteration: 335 time: 1.609055519104004 
n: 67 attempt: 245 best score: 469 iteration: 360 time: 1.513601541519165 
n: 67 attempt: 246 best score: 469 iteration: 288 time: 1.622398853302002 
n: 67 attempt: 247 best score: 469 iteration: 94 time: 1.5453681945800781 
n: 67 attempt: 248 best score: 465 iteration: 342 time: 1.5937459468841553 
n: 67 attempt: 249 best score: 473 iteration: 403 time: 1.5483193397521973 
n: 67 attempt: 250 best score: 497 iteration: 307 time: 1.6449730396270752 
n: 67 attempt: 251 best score: 405 iteration: 34 time: 1.4802746772766113 
n: 67 attempt: 252 best score: 465 iteration: 162 time: 1.613318920135498 
n: 67 attempt: 253 best score: 469 iteration: 410 time: 1.4808416366577148 
n: 67 attempt: 254 best score: 485 iteration: 249 time: 1.5668542385101318 
n: 67 attempt: 255 best score: 477 iteration: 96 time: 1.511596918106079 
n: 67 attempt: 256 best score: 465 iteration: 201 time: 1.4895923137664795 
n: 67 attempt: 257 best score: 453 iteration: 289 time: 1.4625740051269531 
n: 67 attempt: 258 best score: 449 iteration: 263 time: 1.554642915725708 
n: 67 attempt: 259 best score: 449 iteration: 14 time: 1.571977138519287 
n: 67 attempt: 260 best score: 485 iteration: 18 time: 1.5489130020141602 
n: 67 attempt: 261 best score: 417 iteration: 112 time: 1.5348708629608154 
n: 67 attempt: 262 best score: 481 iteration: 97 time: 1.5276811122894287 
n: 67 attempt: 263 best score: 481 iteration: 143 time: 1.435276746749878 
n: 67 attempt: 264 best score: 449 iteration: 123 time: 1.6712307929992676 
n: 67 attempt: 265 best score: 505 iteration: 18 time: 1.5669434070587158 
n: 67 attempt: 266 best score: 425 iteration: 20 time: 1.4695665836334229 
n: 67 attempt: 267 best score: 441 iteration: 92 time: 1.540548324584961 
n: 67 attempt: 268 best score: 437 iteration: 428 time: 1.5543968677520752 
n: 67 attempt: 269 best score: 473 iteration: 19 time: 1.493873119354248 
n: 67 attempt: 270 best score: 461 iteration: 387 time: 1.5513339042663574 
n: 67 attempt: 271 best score: 485 iteration: 442 time: 1.5919222831726074 
n: 67 attempt: 272 best score: 417 iteration: 322 time: 1.5789086818695068 
n: 67 attempt: 273 best score: 461 iteration: 170 time: 1.7444326877593994 
n: 67 attempt: 274 best score: 441 iteration: 412 time: 1.5213737487792969 
n: 67 attempt: 275 best score: 485 iteration: 340 time: 1.5110907554626465 
n: 67 attempt: 276 best score: 481 iteration: 450 time: 1.4418866634368896 
n: 67 attempt: 277 best score: 457 iteration: 195 time: 1.6379868984222412 
n: 67 attempt: 278 best score: 453 iteration: 441 time: 1.5615832805633545 
n: 67 attempt: 279 best score: 497 iteration: 7 time: 1.7030439376831055 
n: 67 attempt: 280 best score: 489 iteration: 52 time: 1.470203161239624 
n: 67 attempt: 281 best score: 433 iteration: 55 time: 1.735048770904541 
n: 67 attempt: 282 best score: 473 iteration: 203 time: 1.5130844116210938 
n: 67 attempt: 283 best score: 425 iteration: 170 time: 1.6096773147583008 
n: 67 attempt: 284 best score: 465 iteration: 77 time: 1.6232542991638184 
n: 67 attempt: 285 best score: 465 iteration: 45 time: 1.6294176578521729 
n: 67 attempt: 286 best score: 433 iteration: 58 time: 1.675513505935669 
n: 67 attempt: 287 best score: 477 iteration: 18 time: 1.4544239044189453 
n: 67 attempt: 288 best score: 445 iteration: 111 time: 1.6968979835510254 
n: 67 attempt: 289 best score: 469 iteration: 388 time: 1.4695138931274414 
n: 67 attempt: 290 best score: 441 iteration: 72 time: 1.7191259860992432 
n: 67 attempt: 291 best score: 485 iteration: 54 time: 1.6387250423431396 
n: 67 attempt: 292 best score: 461 iteration: 196 time: 1.7187457084655762 
n: 67 attempt: 293 best score: 413 iteration: 339 time: 1.5764656066894531 
n: 67 attempt: 294 best score: 481 iteration: 14 time: 1.5822827816009521 
n: 67 attempt: 295 best score: 489 iteration: 315 time: 1.4193522930145264 
n: 67 attempt: 296 best score: 449 iteration: 144 time: 1.4699349403381348 
n: 67 attempt: 297 best score: 469 iteration: 282 time: 1.5744678974151611 
n: 67 attempt: 298 best score: 457 iteration: 38 time: 1.5358142852783203 
n: 67 attempt: 299 best score: 481 iteration: 133 time: 1.479485273361206 
n: 67 attempt: 300 best score: 425 iteration: 430 time: 1.5049126148223877 
n: 67 attempt: 301 best score: 469 iteration: 35 time: 1.4818003177642822 
n: 67 attempt: 302 best score: 457 iteration: 361 time: 1.6449940204620361 
n: 67 attempt: 303 best score: 449 iteration: 54 time: 1.5418856143951416 
n: 67 attempt: 304 best score: 445 iteration: 105 time: 1.5043914318084717 
n: 67 attempt: 305 best score: 481 iteration: 179 time: 1.4662103652954102 
n: 67 attempt: 306 best score: 461 iteration: 249 time: 1.4612541198730469 
n: 67 attempt: 307 best score: 485 iteration: 277 time: 1.4741508960723877 
n: 67 attempt: 308 best score: 473 iteration: 245 time: 1.5669400691986084 
n: 67 attempt: 309 best score: 465 iteration: 134 time: 1.5255978107452393 
n: 67 attempt: 310 best score: 473 iteration: 63 time: 1.6175436973571777 
n: 67 attempt: 311 best score: 405 iteration: 78 time: 1.4926764965057373 
n: 67 attempt: 312 best score: 481 iteration: 318 time: 1.5983076095581055 
n: 67 attempt: 313 best score: 485 iteration: 396 time: 1.440072774887085 
n: 67 attempt: 314 best score: 501 iteration: 353 time: 1.5124046802520752 
n: 67 attempt: 315 best score: 413 iteration: 49 time: 1.6693108081817627 
n: 67 attempt: 316 best score: 433 iteration: 42 time: 1.6146223545074463 
n: 67 attempt: 317 best score: 493 iteration: 431 time: 1.525129795074463 
n: 67 attempt: 318 best score: 489 iteration: 28 time: 1.6606354713439941 
n: 67 attempt: 319 best score: 449 iteration: 258 time: 1.567000150680542 
n: 67 attempt: 320 best score: 481 iteration: 25 time: 1.514801025390625 
n: 67 attempt: 321 best score: 461 iteration: 189 time: 1.462934970855713 
n: 67 attempt: 322 best score: 473 iteration: 227 time: 1.532266616821289 
n: 67 attempt: 323 best score: 453 iteration: 134 time: 1.8422396183013916 
n: 67 attempt: 324 best score: 485 iteration: 21 time: 1.4681227207183838 
n: 67 attempt: 325 best score: 453 iteration: 15 time: 1.4999873638153076 
n: 67 attempt: 326 best score: 485 iteration: 354 time: 1.5139565467834473 
n: 67 attempt: 327 best score: 481 iteration: 134 time: 1.4843757152557373 
n: 67 attempt: 328 best score: 441 iteration: 346 time: 1.5787463188171387 
n: 67 attempt: 329 best score: 481 iteration: 62 time: 1.5988109111785889 
n: 67 attempt: 330 best score: 481 iteration: 344 time: 1.5739543437957764 
n: 67 attempt: 331 best score: 481 iteration: 408 time: 1.4731261730194092 
n: 67 attempt: 332 best score: 497 iteration: 459 time: 1.5428612232208252 
n: 67 attempt: 333 best score: 497 iteration: 9 time: 1.70770263671875 
n: 67 attempt: 334 best score: 497 iteration: 132 time: 1.5250294208526611 
n: 67 attempt: 335 best score: 441 iteration: 10 time: 1.583197832107544 
n: 67 attempt: 336 best score: 433 iteration: 39 time: 1.5443294048309326 
n: 67 attempt: 337 best score: 469 iteration: 305 time: 1.5788719654083252 
n: 67 attempt: 338 best score: 465 iteration: 210 time: 1.4921150207519531 
n: 67 attempt: 339 best score: 489 iteration: 37 time: 1.4729371070861816 
n: 67 attempt: 340 best score: 485 iteration: 85 time: 1.5756099224090576 
n: 67 attempt: 341 best score: 469 iteration: 83 time: 1.4887633323669434 
n: 67 attempt: 342 best score: 517 iteration: 20 time: 1.5575342178344727 
n: 67 attempt: 343 best score: 413 iteration: 107 time: 1.5888679027557373 
n: 67 attempt: 344 best score: 465 iteration: 463 time: 1.4588840007781982 
n: 67 attempt: 345 best score: 437 iteration: 181 time: 1.611016035079956 
n: 67 attempt: 346 best score: 473 iteration: 305 time: 1.5293054580688477 
n: 67 attempt: 347 best score: 441 iteration: 44 time: 1.5668728351593018 
n: 67 attempt: 348 best score: 505 iteration: 208 time: 1.579291820526123 
n: 67 attempt: 349 best score: 441 iteration: 22 time: 1.6377222537994385 
n: 67 attempt: 350 best score: 481 iteration: 143 time: 1.4661681652069092 
n: 67 attempt: 351 best score: 465 iteration: 203 time: 1.6654481887817383 
n: 67 attempt: 352 best score: 425 iteration: 430 time: 1.546874761581421 
n: 67 attempt: 353 best score: 465 iteration: 153 time: 1.4758942127227783 
n: 67 attempt: 354 best score: 485 iteration: 363 time: 1.4826290607452393 
n: 67 attempt: 355 best score: 465 iteration: 310 time: 1.5338916778564453 
n: 67 attempt: 356 best score: 441 iteration: 111 time: 1.671875 
n: 67 attempt: 357 best score: 477 iteration: 444 time: 1.4992585182189941 
n: 67 attempt: 358 best score: 493 iteration: 124 time: 1.6440050601959229 
n: 67 attempt: 359 best score: 493 iteration: 85 time: 1.4975295066833496 
n: 67 attempt: 360 best score: 489 iteration: 144 time: 1.6101012229919434 
n: 67 attempt: 361 best score: 517 iteration: 15 time: 1.4804115295410156 
n: 67 attempt: 362 best score: 481 iteration: 260 time: 1.72306489944458 
n: 67 attempt: 363 best score: 417 iteration: 320 time: 1.5145344734191895 
n: 67 attempt: 364 best score: 497 iteration: 244 time: 1.6484882831573486 
n: 67 attempt: 365 best score: 477 iteration: 36 time: 1.4428820610046387 
n: 67 attempt: 366 best score: 461 iteration: 141 time: 1.5668830871582031 
n: 67 attempt: 367 best score: 433 iteration: 40 time: 1.501051425933838 
n: 67 attempt: 368 best score: 421 iteration: 194 time: 1.5592732429504395 
n: 67 attempt: 369 best score: 457 iteration: 425 time: 1.656106948852539 
n: 67 attempt: 370 best score: 429 iteration: 309 time: 1.5632681846618652 
n: 67 attempt: 371 best score: 481 iteration: 102 time: 1.5351030826568604 
n: 67 attempt: 372 best score: 465 iteration: 342 time: 1.6217665672302246 
n: 67 attempt: 373 best score: 497 iteration: 70 time: 1.6697237491607666 
n: 67 attempt: 374 best score: 417 iteration: 163 time: 1.5937085151672363 
n: 67 attempt: 375 best score: 481 iteration: 171 time: 1.5780959129333496 
n: 67 attempt: 376 best score: 417 iteration: 41 time: 1.5082712173461914 
n: 67 attempt: 377 best score: 449 iteration: 446 time: 1.4691038131713867 
n: 67 attempt: 378 best score: 437 iteration: 337 time: 1.5686542987823486 
n: 67 attempt: 379 best score: 469 iteration: 43 time: 1.6918799877166748 
n: 67 attempt: 380 best score: 465 iteration: 68 time: 1.5260772705078125 
n: 67 attempt: 381 best score: 465 iteration: 118 time: 1.6449756622314453 
n: 67 attempt: 382 best score: 493 iteration: 183 time: 1.513810634613037 
