n: 67 attempt: 1 best score: 409 iteration: 610 time: 11.678000211715698 
n: 67 attempt: 2 best score: 405 iteration: 149 time: 10.584999084472656 
n: 67 attempt: 3 best score: 441 iteration: 351 time: 10.584999799728394 
n: 67 attempt: 4 best score: 417 iteration: 1444 time: 10.702000379562378 
n: 67 attempt: 5 best score: 437 iteration: 1300 time: 10.811003923416138 
n: 67 attempt: 6 best score: 409 iteration: 2127 time: 10.61698317527771 
n: 67 attempt: 7 best score: 433 iteration: 3040 time: 11.524103164672852 
n: 67 attempt: 8 best score: 421 iteration: 2773 time: 11.787534475326538 
n: 67 attempt: 9 best score: 433 iteration: 327 time: 11.743043184280396 
n: 67 attempt: 10 best score: 437 iteration: 1898 time: 11.720095872879028 
n: 67 attempt: 11 best score: 401 iteration: 693 time: 11.813831806182861 
n: 67 attempt: 12 best score: 369 iteration: 2574 time: 11.813538789749146 
n: 67 attempt: 13 best score: 433 iteration: 3035 time: 11.5864417552948 
n: 67 attempt: 14 best score: 397 iteration: 270 time: 11.304338693618774 
n: 67 attempt: 15 best score: 437 iteration: 162 time: 11.372223377227783 
n: 67 attempt: 16 best score: 417 iteration: 1226 time: 11.548288583755493 
n: 67 attempt: 17 best score: 445 iteration: 2264 time: 11.255697250366211 
n: 67 attempt: 18 best score: 405 iteration: 319 time: 11.728854179382324 
n: 67 attempt: 19 best score: 417 iteration: 1596 time: 11.531133890151978 
n: 67 attempt: 20 best score: 445 iteration: 1012 time: 11.3699049949646 
n: 67 attempt: 21 best score: 409 iteration: 51 time: 11.640008211135864 
n: 67 attempt: 22 best score: 441 iteration: 1936 time: 11.53970456123352 
n: 67 attempt: 23 best score: 373 iteration: 32 time: 11.102298974990845 
n: 67 attempt: 24 best score: 437 iteration: 2084 time: 11.486525774002075 
n: 67 attempt: 25 best score: 441 iteration: 1743 time: 11.262761354446411 
n: 67 attempt: 26 best score: 421 iteration: 2862 time: 11.506772756576538 
n: 67 attempt: 27 best score: 421 iteration: 3028 time: 11.38435435295105 
n: 67 attempt: 28 best score: 421 iteration: 2724 time: 11.276134252548218 
n: 67 attempt: 29 best score: 417 iteration: 1770 time: 11.329728364944458 
n: 67 attempt: 30 best score: 385 iteration: 779 time: 11.383296012878418 
n: 67 attempt: 31 best score: 377 iteration: 2131 time: 11.096588611602783 
n: 67 attempt: 32 best score: 457 iteration: 2796 time: 11.287891626358032 
n: 67 attempt: 33 best score: 385 iteration: 261 time: 11.229533433914185 
n: 67 attempt: 34 best score: 409 iteration: 1068 time: 11.372383117675781 
n: 67 attempt: 35 best score: 405 iteration: 3027 time: 11.655975103378296 
n: 67 attempt: 36 best score: 445 iteration: 315 time: 11.123105764389038 
n: 67 attempt: 37 best score: 409 iteration: 2074 time: 10.780093669891357 
n: 67 attempt: 38 best score: 417 iteration: 2737 time: 10.800726890563965 
n: 67 attempt: 39 best score: 461 iteration: 483 time: 10.817366600036621 
n: 67 attempt: 40 best score: 433 iteration: 418 time: 10.81244707107544 
n: 67 attempt: 41 best score: 429 iteration: 519 time: 10.851478099822998 
n: 67 attempt: 42 best score: 421 iteration: 1975 time: 10.760222911834717 
n: 67 attempt: 43 best score: 425 iteration: 55 time: 10.827009916305542 
n: 67 attempt: 44 best score: 445 iteration: 782 time: 10.85888957977295 
n: 67 attempt: 45 best score: 465 iteration: 1301 time: 10.760318279266357 
n: 67 attempt: 46 best score: 417 iteration: 340 time: 10.760407447814941 
n: 67 attempt: 47 best score: 405 iteration: 615 time: 10.769493579864502 
n: 67 attempt: 48 best score: 405 iteration: 3325 time: 10.690333843231201 
n: 67 attempt: 49 best score: 433 iteration: 1919 time: 10.950597286224365 
n: 67 attempt: 50 best score: 429 iteration: 1841 time: 10.75442123413086 
n: 67 attempt: 51 best score: 453 iteration: 233 time: 11.241642475128174 
n: 67 attempt: 52 best score: 437 iteration: 261 time: 11.254025220870972 
n: 67 attempt: 53 best score: 385 iteration: 2661 time: 10.7096688747406 
n: 67 attempt: 54 best score: 389 iteration: 2845 time: 10.70633578300476 
